{
    "m_SerializedProperties": [
        {
            "typeInfo": {
                "fullName": "UnityEditor.ShaderGraph.Internal.Vector1ShaderProperty"
            },
            "JSONnodeData": "{\n    \"m_Guid\": {\n        \"m_GuidSerialized\": \"9cbe8af6-5dfb-4e71-a322-e90d0730075d\"\n    },\n    \"m_Name\": \"PixelSize\",\n    \"m_DefaultReferenceName\": \"Vector1_3C823E71\",\n    \"m_OverrideReferenceName\": \"\",\n    \"m_GeneratePropertyBlock\": true,\n    \"m_Precision\": 1,\n    \"m_GPUInstanced\": false,\n    \"m_Hidden\": false,\n    \"m_Value\": 3.0,\n    \"m_FloatType\": 0,\n    \"m_RangeValues\": {\n        \"x\": 0.0,\n        \"y\": 1.0\n    }\n}"
        },
        {
            "typeInfo": {
                "fullName": "UnityEditor.ShaderGraph.Internal.Vector3ShaderProperty"
            },
            "JSONnodeData": "{\n    \"m_Guid\": {\n        \"m_GuidSerialized\": \"38658b38-1602-4a9a-82dc-92dc9e4bc668\"\n    },\n    \"m_Name\": \"PixelGridOrigin\",\n    \"m_DefaultReferenceName\": \"Vector3_A5345EC2\",\n    \"m_OverrideReferenceName\": \"\",\n    \"m_GeneratePropertyBlock\": true,\n    \"m_Precision\": 1,\n    \"m_GPUInstanced\": false,\n    \"m_Hidden\": false,\n    \"m_Value\": {\n        \"x\": 0.0,\n        \"y\": 0.0,\n        \"z\": 0.0,\n        \"w\": 0.0\n    }\n}"
        },
        {
            "typeInfo": {
                "fullName": "UnityEditor.ShaderGraph.Internal.Vector1ShaderProperty"
            },
            "JSONnodeData": "{\n    \"m_Guid\": {\n        \"m_GuidSerialized\": \"3df5d074-6e4f-446a-84e2-f67b8541c0b0\"\n    },\n    \"m_Name\": \"alpha_in\",\n    \"m_DefaultReferenceName\": \"Vector1_944B6FAF\",\n    \"m_OverrideReferenceName\": \"\",\n    \"m_GeneratePropertyBlock\": true,\n    \"m_Precision\": 1,\n    \"m_GPUInstanced\": false,\n    \"m_Hidden\": false,\n    \"m_Value\": 1.0,\n    \"m_FloatType\": 0,\n    \"m_RangeValues\": {\n        \"x\": 0.0,\n        \"y\": 1.0\n    }\n}"
        }
    ],
    "m_SerializedKeywords": [],
    "m_SerializableNodes": [
        {
            "typeInfo": {
                "fullName": "UnityEditor.ShaderGraph.CustomFunctionNode"
            },
            "JSONnodeData": "{\n    \"m_GuidSerialized\": \"118ddd59-e551-429c-90b1-b802a8673d45\",\n    \"m_GroupGuidSerialized\": \"00000000-0000-0000-0000-000000000000\",\n    \"m_Name\": \"Custom Function\",\n    \"m_NodeVersion\": 0,\n    \"m_DrawState\": {\n        \"m_Expanded\": true,\n        \"m_Position\": {\n            \"serializedVersion\": \"2\",\n            \"x\": 178.0,\n            \"y\": -153.0,\n            \"width\": 242.40000915527345,\n            \"height\": 397.5999450683594\n        }\n    },\n    \"m_SerializableSlots\": [\n        {\n            \"typeInfo\": {\n                \"fullName\": \"UnityEditor.ShaderGraph.Matrix4MaterialSlot\"\n            },\n            \"JSONnodeData\": \"{\\n    \\\"m_Id\\\": 7,\\n    \\\"m_DisplayName\\\": \\\"matrixVP\\\",\\n    \\\"m_SlotType\\\": 0,\\n    \\\"m_Priority\\\": 2147483647,\\n    \\\"m_Hidden\\\": false,\\n    \\\"m_ShaderOutputName\\\": \\\"matrixVP\\\",\\n    \\\"m_StageCapability\\\": 3,\\n    \\\"m_Value\\\": {\\n        \\\"e00\\\": 1.0,\\n        \\\"e01\\\": 0.0,\\n        \\\"e02\\\": 0.0,\\n        \\\"e03\\\": 0.0,\\n        \\\"e10\\\": 0.0,\\n        \\\"e11\\\": 1.0,\\n        \\\"e12\\\": 0.0,\\n        \\\"e13\\\": 0.0,\\n        \\\"e20\\\": 0.0,\\n        \\\"e21\\\": 0.0,\\n        \\\"e22\\\": 1.0,\\n        \\\"e23\\\": 0.0,\\n        \\\"e30\\\": 0.0,\\n        \\\"e31\\\": 0.0,\\n        \\\"e32\\\": 0.0,\\n        \\\"e33\\\": 1.0\\n    },\\n    \\\"m_DefaultValue\\\": {\\n        \\\"e00\\\": 1.0,\\n        \\\"e01\\\": 0.0,\\n        \\\"e02\\\": 0.0,\\n        \\\"e03\\\": 0.0,\\n        \\\"e10\\\": 0.0,\\n        \\\"e11\\\": 1.0,\\n        \\\"e12\\\": 0.0,\\n        \\\"e13\\\": 0.0,\\n        \\\"e20\\\": 0.0,\\n        \\\"e21\\\": 0.0,\\n        \\\"e22\\\": 1.0,\\n        \\\"e23\\\": 0.0,\\n        \\\"e30\\\": 0.0,\\n        \\\"e31\\\": 0.0,\\n        \\\"e32\\\": 0.0,\\n        \\\"e33\\\": 1.0\\n    }\\n}\"\n        },\n        {\n            \"typeInfo\": {\n                \"fullName\": \"UnityEditor.ShaderGraph.Vector3MaterialSlot\"\n            },\n            \"JSONnodeData\": \"{\\n    \\\"m_Id\\\": 1,\\n    \\\"m_DisplayName\\\": \\\"objectCentreWS\\\",\\n    \\\"m_SlotType\\\": 0,\\n    \\\"m_Priority\\\": 2147483647,\\n    \\\"m_Hidden\\\": false,\\n    \\\"m_ShaderOutputName\\\": \\\"objectCentreWS\\\",\\n    \\\"m_StageCapability\\\": 3,\\n    \\\"m_Value\\\": {\\n        \\\"x\\\": 0.0,\\n        \\\"y\\\": 0.0,\\n        \\\"z\\\": 0.0\\n    },\\n    \\\"m_DefaultValue\\\": {\\n        \\\"x\\\": 0.0,\\n        \\\"y\\\": 0.0,\\n        \\\"z\\\": 0.0\\n    },\\n    \\\"m_Labels\\\": [\\n        \\\"X\\\",\\n        \\\"Y\\\",\\n        \\\"Z\\\"\\n    ]\\n}\"\n        },\n        {\n            \"typeInfo\": {\n                \"fullName\": \"UnityEditor.ShaderGraph.Vector4MaterialSlot\"\n            },\n            \"JSONnodeData\": \"{\\n    \\\"m_Id\\\": 2,\\n    \\\"m_DisplayName\\\": \\\"_ScreenParams\\\",\\n    \\\"m_SlotType\\\": 0,\\n    \\\"m_Priority\\\": 2147483647,\\n    \\\"m_Hidden\\\": false,\\n    \\\"m_ShaderOutputName\\\": \\\"ScreenParams\\\",\\n    \\\"m_StageCapability\\\": 3,\\n    \\\"m_Value\\\": {\\n        \\\"x\\\": 0.0,\\n        \\\"y\\\": 0.0,\\n        \\\"z\\\": 0.0,\\n        \\\"w\\\": 0.0\\n    },\\n    \\\"m_DefaultValue\\\": {\\n        \\\"x\\\": 0.0,\\n        \\\"y\\\": 0.0,\\n        \\\"z\\\": 0.0,\\n        \\\"w\\\": 0.0\\n    }\\n}\"\n        },\n        {\n            \"typeInfo\": {\n                \"fullName\": \"UnityEditor.ShaderGraph.Vector4MaterialSlot\"\n            },\n            \"JSONnodeData\": \"{\\n    \\\"m_Id\\\": 3,\\n    \\\"m_DisplayName\\\": \\\"positionCS\\\",\\n    \\\"m_SlotType\\\": 0,\\n    \\\"m_Priority\\\": 2147483647,\\n    \\\"m_Hidden\\\": false,\\n    \\\"m_ShaderOutputName\\\": \\\"positionCS\\\",\\n    \\\"m_StageCapability\\\": 3,\\n    \\\"m_Value\\\": {\\n        \\\"x\\\": 0.0,\\n        \\\"y\\\": 0.0,\\n        \\\"z\\\": 0.0,\\n        \\\"w\\\": 0.0\\n    },\\n    \\\"m_DefaultValue\\\": {\\n        \\\"x\\\": 0.0,\\n        \\\"y\\\": 0.0,\\n        \\\"z\\\": 0.0,\\n        \\\"w\\\": 0.0\\n    }\\n}\"\n        },\n        {\n            \"typeInfo\": {\n                \"fullName\": \"UnityEditor.ShaderGraph.Vector1MaterialSlot\"\n            },\n            \"JSONnodeData\": \"{\\n    \\\"m_Id\\\": 4,\\n    \\\"m_DisplayName\\\": \\\"pixelSize\\\",\\n    \\\"m_SlotType\\\": 0,\\n    \\\"m_Priority\\\": 2147483647,\\n    \\\"m_Hidden\\\": false,\\n    \\\"m_ShaderOutputName\\\": \\\"pixelSize\\\",\\n    \\\"m_StageCapability\\\": 3,\\n    \\\"m_Value\\\": 3.0,\\n    \\\"m_DefaultValue\\\": 0.0,\\n    \\\"m_Labels\\\": [\\n        \\\"X\\\"\\n    ]\\n}\"\n        },\n        {\n            \"typeInfo\": {\n                \"fullName\": \"UnityEditor.ShaderGraph.Vector1MaterialSlot\"\n            },\n            \"JSONnodeData\": \"{\\n    \\\"m_Id\\\": 8,\\n    \\\"m_DisplayName\\\": \\\"alpha_in\\\",\\n    \\\"m_SlotType\\\": 0,\\n    \\\"m_Priority\\\": 2147483647,\\n    \\\"m_Hidden\\\": false,\\n    \\\"m_ShaderOutputName\\\": \\\"alphain\\\",\\n    \\\"m_StageCapability\\\": 3,\\n    \\\"m_Value\\\": 1.0,\\n    \\\"m_DefaultValue\\\": 0.0,\\n    \\\"m_Labels\\\": [\\n        \\\"X\\\"\\n    ]\\n}\"\n        },\n        {\n            \"typeInfo\": {\n                \"fullName\": \"UnityEditor.ShaderGraph.Vector1MaterialSlot\"\n            },\n            \"JSONnodeData\": \"{\\n    \\\"m_Id\\\": 6,\\n    \\\"m_DisplayName\\\": \\\"alpha_out\\\",\\n    \\\"m_SlotType\\\": 1,\\n    \\\"m_Priority\\\": 2147483647,\\n    \\\"m_Hidden\\\": false,\\n    \\\"m_ShaderOutputName\\\": \\\"alphaout\\\",\\n    \\\"m_StageCapability\\\": 3,\\n    \\\"m_Value\\\": 0.0,\\n    \\\"m_DefaultValue\\\": 0.0,\\n    \\\"m_Labels\\\": [\\n        \\\"X\\\"\\n    ]\\n}\"\n        },\n        {\n            \"typeInfo\": {\n                \"fullName\": \"UnityEditor.ShaderGraph.Vector2MaterialSlot\"\n            },\n            \"JSONnodeData\": \"{\\n    \\\"m_Id\\\": 9,\\n    \\\"m_DisplayName\\\": \\\"ditherUV\\\",\\n    \\\"m_SlotType\\\": 1,\\n    \\\"m_Priority\\\": 2147483647,\\n    \\\"m_Hidden\\\": false,\\n    \\\"m_ShaderOutputName\\\": \\\"ditherUV\\\",\\n    \\\"m_StageCapability\\\": 3,\\n    \\\"m_Value\\\": {\\n        \\\"x\\\": 0.0,\\n        \\\"y\\\": 0.0\\n    },\\n    \\\"m_DefaultValue\\\": {\\n        \\\"x\\\": 0.0,\\n        \\\"y\\\": 0.0\\n    },\\n    \\\"m_Labels\\\": [\\n        \\\"X\\\",\\n        \\\"Y\\\"\\n    ]\\n}\"\n        }\n    ],\n    \"m_Precision\": 1,\n    \"m_PreviewExpanded\": true,\n    \"m_CustomColors\": {\n        \"m_SerializableColors\": []\n    },\n    \"m_SourceType\": 0,\n    \"m_FunctionName\": \"PixelClipAlpha\",\n    \"m_FunctionSource\": \"0188cfc2d87c7dd40a2d6ffb22813fce\",\n    \"m_FunctionBody\": \"Enter function body here...\"\n}"
        },
        {
            "typeInfo": {
                "fullName": "UnityEditor.ShaderGraph.ScreenNode"
            },
            "JSONnodeData": "{\n    \"m_GuidSerialized\": \"215fe68c-4b20-4506-8c83-80d2e8beff1c\",\n    \"m_GroupGuidSerialized\": \"00000000-0000-0000-0000-000000000000\",\n    \"m_Name\": \"Screen\",\n    \"m_NodeVersion\": 0,\n    \"m_DrawState\": {\n        \"m_Expanded\": true,\n        \"m_Position\": {\n            \"serializedVersion\": \"2\",\n            \"x\": -331.59991455078127,\n            \"y\": 130.2000732421875,\n            \"width\": 103.199951171875,\n            \"height\": 100.79998016357422\n        }\n    },\n    \"m_SerializableSlots\": [\n        {\n            \"typeInfo\": {\n                \"fullName\": \"UnityEditor.ShaderGraph.Vector1MaterialSlot\"\n            },\n            \"JSONnodeData\": \"{\\n    \\\"m_Id\\\": 0,\\n    \\\"m_DisplayName\\\": \\\"Width\\\",\\n    \\\"m_SlotType\\\": 1,\\n    \\\"m_Priority\\\": 2147483647,\\n    \\\"m_Hidden\\\": false,\\n    \\\"m_ShaderOutputName\\\": \\\"Width\\\",\\n    \\\"m_StageCapability\\\": 3,\\n    \\\"m_Value\\\": 0.0,\\n    \\\"m_DefaultValue\\\": 0.0,\\n    \\\"m_Labels\\\": [\\n        \\\"X\\\"\\n    ]\\n}\"\n        },\n        {\n            \"typeInfo\": {\n                \"fullName\": \"UnityEditor.ShaderGraph.Vector1MaterialSlot\"\n            },\n            \"JSONnodeData\": \"{\\n    \\\"m_Id\\\": 1,\\n    \\\"m_DisplayName\\\": \\\"Height\\\",\\n    \\\"m_SlotType\\\": 1,\\n    \\\"m_Priority\\\": 2147483647,\\n    \\\"m_Hidden\\\": false,\\n    \\\"m_ShaderOutputName\\\": \\\"Height\\\",\\n    \\\"m_StageCapability\\\": 3,\\n    \\\"m_Value\\\": 0.0,\\n    \\\"m_DefaultValue\\\": 0.0,\\n    \\\"m_Labels\\\": [\\n        \\\"X\\\"\\n    ]\\n}\"\n        }\n    ],\n    \"m_Precision\": 1,\n    \"m_PreviewExpanded\": true,\n    \"m_CustomColors\": {\n        \"m_SerializableColors\": []\n    }\n}"
        },
        {
            "typeInfo": {
                "fullName": "UnityEditor.ShaderGraph.ScreenPositionNode"
            },
            "JSONnodeData": "{\n    \"m_GuidSerialized\": \"22951025-6167-4c6c-ab2a-f2a517f0dd3e\",\n    \"m_GroupGuidSerialized\": \"00000000-0000-0000-0000-000000000000\",\n    \"m_Name\": \"Screen Position\",\n    \"m_NodeVersion\": 0,\n    \"m_DrawState\": {\n        \"m_Expanded\": true,\n        \"m_Position\": {\n            \"serializedVersion\": \"2\",\n            \"x\": -375.59991455078127,\n            \"y\": -4.99993896484375,\n            \"width\": 152.79998779296876,\n            \"height\": 128.79998779296876\n        }\n    },\n    \"m_SerializableSlots\": [\n        {\n            \"typeInfo\": {\n                \"fullName\": \"UnityEditor.ShaderGraph.Vector4MaterialSlot\"\n            },\n            \"JSONnodeData\": \"{\\n    \\\"m_Id\\\": 0,\\n    \\\"m_DisplayName\\\": \\\"Out\\\",\\n    \\\"m_SlotType\\\": 1,\\n    \\\"m_Priority\\\": 2147483647,\\n    \\\"m_Hidden\\\": false,\\n    \\\"m_ShaderOutputName\\\": \\\"Out\\\",\\n    \\\"m_StageCapability\\\": 3,\\n    \\\"m_Value\\\": {\\n        \\\"x\\\": 0.0,\\n        \\\"y\\\": 0.0,\\n        \\\"z\\\": 0.0,\\n        \\\"w\\\": 0.0\\n    },\\n    \\\"m_DefaultValue\\\": {\\n        \\\"x\\\": 0.0,\\n        \\\"y\\\": 0.0,\\n        \\\"z\\\": 0.0,\\n        \\\"w\\\": 0.0\\n    }\\n}\"\n        }\n    ],\n    \"m_Precision\": 1,\n    \"m_PreviewExpanded\": false,\n    \"m_CustomColors\": {\n        \"m_SerializableColors\": []\n    },\n    \"m_ScreenSpaceType\": 0\n}"
        },
        {
            "typeInfo": {
                "fullName": "UnityEditor.ShaderGraph.TransformationMatrixNode"
            },
            "JSONnodeData": "{\n    \"m_GuidSerialized\": \"5a7e284c-d668-4235-a76a-032e469db36c\",\n    \"m_GroupGuidSerialized\": \"00000000-0000-0000-0000-000000000000\",\n    \"m_Name\": \"Transformation Matrix\",\n    \"m_NodeVersion\": 0,\n    \"m_DrawState\": {\n        \"m_Expanded\": true,\n        \"m_Position\": {\n            \"serializedVersion\": \"2\",\n            \"x\": -85.20001220703125,\n            \"y\": -245.0,\n            \"width\": 189.60003662109376,\n            \"height\": 111.99999237060547\n        }\n    },\n    \"m_SerializableSlots\": [\n        {\n            \"typeInfo\": {\n                \"fullName\": \"UnityEditor.ShaderGraph.Matrix4MaterialSlot\"\n            },\n            \"JSONnodeData\": \"{\\n    \\\"m_Id\\\": 0,\\n    \\\"m_DisplayName\\\": \\\"Out\\\",\\n    \\\"m_SlotType\\\": 1,\\n    \\\"m_Priority\\\": 2147483647,\\n    \\\"m_Hidden\\\": false,\\n    \\\"m_ShaderOutputName\\\": \\\"Out\\\",\\n    \\\"m_StageCapability\\\": 3,\\n    \\\"m_Value\\\": {\\n        \\\"e00\\\": 1.0,\\n        \\\"e01\\\": 0.0,\\n        \\\"e02\\\": 0.0,\\n        \\\"e03\\\": 0.0,\\n        \\\"e10\\\": 0.0,\\n        \\\"e11\\\": 1.0,\\n        \\\"e12\\\": 0.0,\\n        \\\"e13\\\": 0.0,\\n        \\\"e20\\\": 0.0,\\n        \\\"e21\\\": 0.0,\\n        \\\"e22\\\": 1.0,\\n        \\\"e23\\\": 0.0,\\n        \\\"e30\\\": 0.0,\\n        \\\"e31\\\": 0.0,\\n        \\\"e32\\\": 0.0,\\n        \\\"e33\\\": 1.0\\n    },\\n    \\\"m_DefaultValue\\\": {\\n        \\\"e00\\\": 1.0,\\n        \\\"e01\\\": 0.0,\\n        \\\"e02\\\": 0.0,\\n        \\\"e03\\\": 0.0,\\n        \\\"e10\\\": 0.0,\\n        \\\"e11\\\": 1.0,\\n        \\\"e12\\\": 0.0,\\n        \\\"e13\\\": 0.0,\\n        \\\"e20\\\": 0.0,\\n        \\\"e21\\\": 0.0,\\n        \\\"e22\\\": 1.0,\\n        \\\"e23\\\": 0.0,\\n        \\\"e30\\\": 0.0,\\n        \\\"e31\\\": 0.0,\\n        \\\"e32\\\": 0.0,\\n        \\\"e33\\\": 1.0\\n    }\\n}\"\n        }\n    ],\n    \"m_Precision\": 0,\n    \"m_PreviewExpanded\": true,\n    \"m_CustomColors\": {\n        \"m_SerializableColors\": []\n    },\n    \"m_matrix\": -1,\n    \"m_MatrixType\": 6\n}"
        },
        {
            "typeInfo": {
                "fullName": "UnityEditor.ShaderGraph.PropertyNode"
            },
            "JSONnodeData": "{\n    \"m_GuidSerialized\": \"6aabcd1b-d041-4914-9318-098688497b4f\",\n    \"m_GroupGuidSerialized\": \"00000000-0000-0000-0000-000000000000\",\n    \"m_Name\": \"Property\",\n    \"m_NodeVersion\": 0,\n    \"m_DrawState\": {\n        \"m_Expanded\": true,\n        \"m_Position\": {\n            \"serializedVersion\": \"2\",\n            \"x\": -18.0,\n            \"y\": 171.0,\n            \"width\": 119.0,\n            \"height\": 34.0\n        }\n    },\n    \"m_SerializableSlots\": [\n        {\n            \"typeInfo\": {\n                \"fullName\": \"UnityEditor.ShaderGraph.Vector1MaterialSlot\"\n            },\n            \"JSONnodeData\": \"{\\n    \\\"m_Id\\\": 0,\\n    \\\"m_DisplayName\\\": \\\"alpha_in\\\",\\n    \\\"m_SlotType\\\": 1,\\n    \\\"m_Priority\\\": 2147483647,\\n    \\\"m_Hidden\\\": false,\\n    \\\"m_ShaderOutputName\\\": \\\"Out\\\",\\n    \\\"m_StageCapability\\\": 3,\\n    \\\"m_Value\\\": 0.0,\\n    \\\"m_DefaultValue\\\": 0.0,\\n    \\\"m_Labels\\\": [\\n        \\\"X\\\"\\n    ]\\n}\"\n        }\n    ],\n    \"m_Precision\": 1,\n    \"m_PreviewExpanded\": true,\n    \"m_CustomColors\": {\n        \"m_SerializableColors\": []\n    },\n    \"m_PropertyGuidSerialized\": \"3df5d074-6e4f-446a-84e2-f67b8541c0b0\"\n}"
        },
        {
            "typeInfo": {
                "fullName": "UnityEditor.ShaderGraph.CombineNode"
            },
            "JSONnodeData": "{\n    \"m_GuidSerialized\": \"878916d4-4ffc-4341-a687-61184c51b7a0\",\n    \"m_GroupGuidSerialized\": \"00000000-0000-0000-0000-000000000000\",\n    \"m_Name\": \"Combine\",\n    \"m_NodeVersion\": 0,\n    \"m_DrawState\": {\n        \"m_Expanded\": false,\n        \"m_Position\": {\n            \"serializedVersion\": \"2\",\n            \"x\": -203.59991455078126,\n            \"y\": 130.2000732421875,\n            \"width\": 140.0,\n            \"height\": 117.59996795654297\n        }\n    },\n    \"m_SerializableSlots\": [\n        {\n            \"typeInfo\": {\n                \"fullName\": \"UnityEditor.ShaderGraph.Vector1MaterialSlot\"\n            },\n            \"JSONnodeData\": \"{\\n    \\\"m_Id\\\": 0,\\n    \\\"m_DisplayName\\\": \\\"R\\\",\\n    \\\"m_SlotType\\\": 0,\\n    \\\"m_Priority\\\": 2147483647,\\n    \\\"m_Hidden\\\": false,\\n    \\\"m_ShaderOutputName\\\": \\\"R\\\",\\n    \\\"m_StageCapability\\\": 3,\\n    \\\"m_Value\\\": 0.0,\\n    \\\"m_DefaultValue\\\": 0.0,\\n    \\\"m_Labels\\\": [\\n        \\\"X\\\"\\n    ]\\n}\"\n        },\n        {\n            \"typeInfo\": {\n                \"fullName\": \"UnityEditor.ShaderGraph.Vector1MaterialSlot\"\n            },\n            \"JSONnodeData\": \"{\\n    \\\"m_Id\\\": 1,\\n    \\\"m_DisplayName\\\": \\\"G\\\",\\n    \\\"m_SlotType\\\": 0,\\n    \\\"m_Priority\\\": 2147483647,\\n    \\\"m_Hidden\\\": false,\\n    \\\"m_ShaderOutputName\\\": \\\"G\\\",\\n    \\\"m_StageCapability\\\": 3,\\n    \\\"m_Value\\\": 0.0,\\n    \\\"m_DefaultValue\\\": 0.0,\\n    \\\"m_Labels\\\": [\\n        \\\"X\\\"\\n    ]\\n}\"\n        },\n        {\n            \"typeInfo\": {\n                \"fullName\": \"UnityEditor.ShaderGraph.Vector1MaterialSlot\"\n            },\n            \"JSONnodeData\": \"{\\n    \\\"m_Id\\\": 2,\\n    \\\"m_DisplayName\\\": \\\"B\\\",\\n    \\\"m_SlotType\\\": 0,\\n    \\\"m_Priority\\\": 2147483647,\\n    \\\"m_Hidden\\\": false,\\n    \\\"m_ShaderOutputName\\\": \\\"B\\\",\\n    \\\"m_StageCapability\\\": 3,\\n    \\\"m_Value\\\": 0.0,\\n    \\\"m_DefaultValue\\\": 0.0,\\n    \\\"m_Labels\\\": [\\n        \\\"X\\\"\\n    ]\\n}\"\n        },\n        {\n            \"typeInfo\": {\n                \"fullName\": \"UnityEditor.ShaderGraph.Vector1MaterialSlot\"\n            },\n            \"JSONnodeData\": \"{\\n    \\\"m_Id\\\": 3,\\n    \\\"m_DisplayName\\\": \\\"A\\\",\\n    \\\"m_SlotType\\\": 0,\\n    \\\"m_Priority\\\": 2147483647,\\n    \\\"m_Hidden\\\": false,\\n    \\\"m_ShaderOutputName\\\": \\\"A\\\",\\n    \\\"m_StageCapability\\\": 3,\\n    \\\"m_Value\\\": 0.0,\\n    \\\"m_DefaultValue\\\": 0.0,\\n    \\\"m_Labels\\\": [\\n        \\\"X\\\"\\n    ]\\n}\"\n        },\n        {\n            \"typeInfo\": {\n                \"fullName\": \"UnityEditor.ShaderGraph.Vector4MaterialSlot\"\n            },\n            \"JSONnodeData\": \"{\\n    \\\"m_Id\\\": 4,\\n    \\\"m_DisplayName\\\": \\\"RGBA\\\",\\n    \\\"m_SlotType\\\": 1,\\n    \\\"m_Priority\\\": 2147483647,\\n    \\\"m_Hidden\\\": false,\\n    \\\"m_ShaderOutputName\\\": \\\"RGBA\\\",\\n    \\\"m_StageCapability\\\": 3,\\n    \\\"m_Value\\\": {\\n        \\\"x\\\": 0.0,\\n        \\\"y\\\": 0.0,\\n        \\\"z\\\": 0.0,\\n        \\\"w\\\": 0.0\\n    },\\n    \\\"m_DefaultValue\\\": {\\n        \\\"x\\\": 0.0,\\n        \\\"y\\\": 0.0,\\n        \\\"z\\\": 0.0,\\n        \\\"w\\\": 0.0\\n    }\\n}\"\n        },\n        {\n            \"typeInfo\": {\n                \"fullName\": \"UnityEditor.ShaderGraph.Vector3MaterialSlot\"\n            },\n            \"JSONnodeData\": \"{\\n    \\\"m_Id\\\": 5,\\n    \\\"m_DisplayName\\\": \\\"RGB\\\",\\n    \\\"m_SlotType\\\": 1,\\n    \\\"m_Priority\\\": 2147483647,\\n    \\\"m_Hidden\\\": false,\\n    \\\"m_ShaderOutputName\\\": \\\"RGB\\\",\\n    \\\"m_StageCapability\\\": 3,\\n    \\\"m_Value\\\": {\\n        \\\"x\\\": 0.0,\\n        \\\"y\\\": 0.0,\\n        \\\"z\\\": 0.0\\n    },\\n    \\\"m_DefaultValue\\\": {\\n        \\\"x\\\": 0.0,\\n        \\\"y\\\": 0.0,\\n        \\\"z\\\": 0.0\\n    },\\n    \\\"m_Labels\\\": [\\n        \\\"X\\\",\\n        \\\"Y\\\",\\n        \\\"Z\\\"\\n    ]\\n}\"\n        },\n        {\n            \"typeInfo\": {\n                \"fullName\": \"UnityEditor.ShaderGraph.Vector2MaterialSlot\"\n            },\n            \"JSONnodeData\": \"{\\n    \\\"m_Id\\\": 6,\\n    \\\"m_DisplayName\\\": \\\"RG\\\",\\n    \\\"m_SlotType\\\": 1,\\n    \\\"m_Priority\\\": 2147483647,\\n    \\\"m_Hidden\\\": false,\\n    \\\"m_ShaderOutputName\\\": \\\"RG\\\",\\n    \\\"m_StageCapability\\\": 3,\\n    \\\"m_Value\\\": {\\n        \\\"x\\\": 0.0,\\n        \\\"y\\\": 0.0\\n    },\\n    \\\"m_DefaultValue\\\": {\\n        \\\"x\\\": 0.0,\\n        \\\"y\\\": 0.0\\n    },\\n    \\\"m_Labels\\\": [\\n        \\\"X\\\",\\n        \\\"Y\\\"\\n    ]\\n}\"\n        }\n    ],\n    \"m_Precision\": 0,\n    \"m_PreviewExpanded\": false,\n    \"m_CustomColors\": {\n        \"m_SerializableColors\": []\n    }\n}"
        },
        {
            "typeInfo": {
                "fullName": "UnityEditor.ShaderGraph.MultiplyNode"
            },
            "JSONnodeData": "{\n    \"m_GuidSerialized\": \"94d8ae0c-5dca-4c41-b1e7-33d7c186d90b\",\n    \"m_GroupGuidSerialized\": \"00000000-0000-0000-0000-000000000000\",\n    \"m_Name\": \"Multiply\",\n    \"m_NodeVersion\": 0,\n    \"m_DrawState\": {\n        \"m_Expanded\": true,\n        \"m_Position\": {\n            \"serializedVersion\": \"2\",\n            \"x\": -32.4000244140625,\n            \"y\": 2.2000732421875,\n            \"width\": 130.4000244140625,\n            \"height\": 117.59996795654297\n        }\n    },\n    \"m_SerializableSlots\": [\n        {\n            \"typeInfo\": {\n                \"fullName\": \"UnityEditor.ShaderGraph.DynamicValueMaterialSlot\"\n            },\n            \"JSONnodeData\": \"{\\n    \\\"m_Id\\\": 0,\\n    \\\"m_DisplayName\\\": \\\"A\\\",\\n    \\\"m_SlotType\\\": 0,\\n    \\\"m_Priority\\\": 2147483647,\\n    \\\"m_Hidden\\\": false,\\n    \\\"m_ShaderOutputName\\\": \\\"A\\\",\\n    \\\"m_StageCapability\\\": 3,\\n    \\\"m_Value\\\": {\\n        \\\"e00\\\": 0.0,\\n        \\\"e01\\\": 0.0,\\n        \\\"e02\\\": 0.0,\\n        \\\"e03\\\": 0.0,\\n        \\\"e10\\\": 0.0,\\n        \\\"e11\\\": 0.0,\\n        \\\"e12\\\": 0.0,\\n        \\\"e13\\\": 0.0,\\n        \\\"e20\\\": 0.0,\\n        \\\"e21\\\": 0.0,\\n        \\\"e22\\\": 0.0,\\n        \\\"e23\\\": 0.0,\\n        \\\"e30\\\": 0.0,\\n        \\\"e31\\\": 0.0,\\n        \\\"e32\\\": 0.0,\\n        \\\"e33\\\": 0.0\\n    },\\n    \\\"m_DefaultValue\\\": {\\n        \\\"e00\\\": 1.0,\\n        \\\"e01\\\": 0.0,\\n        \\\"e02\\\": 0.0,\\n        \\\"e03\\\": 0.0,\\n        \\\"e10\\\": 0.0,\\n        \\\"e11\\\": 1.0,\\n        \\\"e12\\\": 0.0,\\n        \\\"e13\\\": 0.0,\\n        \\\"e20\\\": 0.0,\\n        \\\"e21\\\": 0.0,\\n        \\\"e22\\\": 1.0,\\n        \\\"e23\\\": 0.0,\\n        \\\"e30\\\": 0.0,\\n        \\\"e31\\\": 0.0,\\n        \\\"e32\\\": 0.0,\\n        \\\"e33\\\": 1.0\\n    }\\n}\"\n        },\n        {\n            \"typeInfo\": {\n                \"fullName\": \"UnityEditor.ShaderGraph.DynamicValueMaterialSlot\"\n            },\n            \"JSONnodeData\": \"{\\n    \\\"m_Id\\\": 1,\\n    \\\"m_DisplayName\\\": \\\"B\\\",\\n    \\\"m_SlotType\\\": 0,\\n    \\\"m_Priority\\\": 2147483647,\\n    \\\"m_Hidden\\\": false,\\n    \\\"m_ShaderOutputName\\\": \\\"B\\\",\\n    \\\"m_StageCapability\\\": 3,\\n    \\\"m_Value\\\": {\\n        \\\"e00\\\": 2.0,\\n        \\\"e01\\\": 2.0,\\n        \\\"e02\\\": 2.0,\\n        \\\"e03\\\": 2.0,\\n        \\\"e10\\\": 2.0,\\n        \\\"e11\\\": 2.0,\\n        \\\"e12\\\": 2.0,\\n        \\\"e13\\\": 2.0,\\n        \\\"e20\\\": 2.0,\\n        \\\"e21\\\": 2.0,\\n        \\\"e22\\\": 2.0,\\n        \\\"e23\\\": 2.0,\\n        \\\"e30\\\": 2.0,\\n        \\\"e31\\\": 2.0,\\n        \\\"e32\\\": 2.0,\\n        \\\"e33\\\": 2.0\\n    },\\n    \\\"m_DefaultValue\\\": {\\n        \\\"e00\\\": 1.0,\\n        \\\"e01\\\": 0.0,\\n        \\\"e02\\\": 0.0,\\n        \\\"e03\\\": 0.0,\\n        \\\"e10\\\": 0.0,\\n        \\\"e11\\\": 1.0,\\n        \\\"e12\\\": 0.0,\\n        \\\"e13\\\": 0.0,\\n        \\\"e20\\\": 0.0,\\n        \\\"e21\\\": 0.0,\\n        \\\"e22\\\": 1.0,\\n        \\\"e23\\\": 0.0,\\n        \\\"e30\\\": 0.0,\\n        \\\"e31\\\": 0.0,\\n        \\\"e32\\\": 0.0,\\n        \\\"e33\\\": 1.0\\n    }\\n}\"\n        },\n        {\n            \"typeInfo\": {\n                \"fullName\": \"UnityEditor.ShaderGraph.DynamicValueMaterialSlot\"\n            },\n            \"JSONnodeData\": \"{\\n    \\\"m_Id\\\": 2,\\n    \\\"m_DisplayName\\\": \\\"Out\\\",\\n    \\\"m_SlotType\\\": 1,\\n    \\\"m_Priority\\\": 2147483647,\\n    \\\"m_Hidden\\\": false,\\n    \\\"m_ShaderOutputName\\\": \\\"Out\\\",\\n    \\\"m_StageCapability\\\": 3,\\n    \\\"m_Value\\\": {\\n        \\\"e00\\\": 0.0,\\n        \\\"e01\\\": 0.0,\\n        \\\"e02\\\": 0.0,\\n        \\\"e03\\\": 0.0,\\n        \\\"e10\\\": 0.0,\\n        \\\"e11\\\": 0.0,\\n        \\\"e12\\\": 0.0,\\n        \\\"e13\\\": 0.0,\\n        \\\"e20\\\": 0.0,\\n        \\\"e21\\\": 0.0,\\n        \\\"e22\\\": 0.0,\\n        \\\"e23\\\": 0.0,\\n        \\\"e30\\\": 0.0,\\n        \\\"e31\\\": 0.0,\\n        \\\"e32\\\": 0.0,\\n        \\\"e33\\\": 0.0\\n    },\\n    \\\"m_DefaultValue\\\": {\\n        \\\"e00\\\": 1.0,\\n        \\\"e01\\\": 0.0,\\n        \\\"e02\\\": 0.0,\\n        \\\"e03\\\": 0.0,\\n        \\\"e10\\\": 0.0,\\n        \\\"e11\\\": 1.0,\\n        \\\"e12\\\": 0.0,\\n        \\\"e13\\\": 0.0,\\n        \\\"e20\\\": 0.0,\\n        \\\"e21\\\": 0.0,\\n        \\\"e22\\\": 1.0,\\n        \\\"e23\\\": 0.0,\\n        \\\"e30\\\": 0.0,\\n        \\\"e31\\\": 0.0,\\n        \\\"e32\\\": 0.0,\\n        \\\"e33\\\": 1.0\\n    }\\n}\"\n        }\n    ],\n    \"m_Precision\": 0,\n    \"m_PreviewExpanded\": false,\n    \"m_CustomColors\": {\n        \"m_SerializableColors\": []\n    }\n}"
        },
        {
            "typeInfo": {
                "fullName": "UnityEditor.ShaderGraph.PropertyNode"
            },
            "JSONnodeData": "{\n    \"m_GuidSerialized\": \"a96beaae-aa90-4aae-a220-4c37b64067a0\",\n    \"m_GroupGuidSerialized\": \"00000000-0000-0000-0000-000000000000\",\n    \"m_Name\": \"Property\",\n    \"m_NodeVersion\": 0,\n    \"m_DrawState\": {\n        \"m_Expanded\": true,\n        \"m_Position\": {\n            \"serializedVersion\": \"2\",\n            \"x\": -22.399988174438478,\n            \"y\": 130.3999786376953,\n            \"width\": 125.59999084472656,\n            \"height\": 33.60000228881836\n        }\n    },\n    \"m_SerializableSlots\": [\n        {\n            \"typeInfo\": {\n                \"fullName\": \"UnityEditor.ShaderGraph.Vector1MaterialSlot\"\n            },\n            \"JSONnodeData\": \"{\\n    \\\"m_Id\\\": 0,\\n    \\\"m_DisplayName\\\": \\\"PixelSize\\\",\\n    \\\"m_SlotType\\\": 1,\\n    \\\"m_Priority\\\": 2147483647,\\n    \\\"m_Hidden\\\": false,\\n    \\\"m_ShaderOutputName\\\": \\\"Out\\\",\\n    \\\"m_StageCapability\\\": 3,\\n    \\\"m_Value\\\": 0.0,\\n    \\\"m_DefaultValue\\\": 0.0,\\n    \\\"m_Labels\\\": [\\n        \\\"X\\\"\\n    ]\\n}\"\n        }\n    ],\n    \"m_Precision\": 1,\n    \"m_PreviewExpanded\": true,\n    \"m_CustomColors\": {\n        \"m_SerializableColors\": []\n    },\n    \"m_PropertyGuidSerialized\": \"9cbe8af6-5dfb-4e71-a322-e90d0730075d\"\n}"
        },
        {
            "typeInfo": {
                "fullName": "UnityEditor.ShaderGraph.PropertyNode"
            },
            "JSONnodeData": "{\n    \"m_GuidSerialized\": \"c54e7ffd-bfad-4db5-9846-f3baba970da1\",\n    \"m_GroupGuidSerialized\": \"00000000-0000-0000-0000-000000000000\",\n    \"m_Name\": \"Property\",\n    \"m_NodeVersion\": 0,\n    \"m_DrawState\": {\n        \"m_Expanded\": true,\n        \"m_Position\": {\n            \"serializedVersion\": \"2\",\n            \"x\": -9.0,\n            \"y\": -89.0,\n            \"width\": 156.0,\n            \"height\": 34.0\n        }\n    },\n    \"m_SerializableSlots\": [\n        {\n            \"typeInfo\": {\n                \"fullName\": \"UnityEditor.ShaderGraph.Vector3MaterialSlot\"\n            },\n            \"JSONnodeData\": \"{\\n    \\\"m_Id\\\": 0,\\n    \\\"m_DisplayName\\\": \\\"PixelGridOrigin\\\",\\n    \\\"m_SlotType\\\": 1,\\n    \\\"m_Priority\\\": 2147483647,\\n    \\\"m_Hidden\\\": false,\\n    \\\"m_ShaderOutputName\\\": \\\"Out\\\",\\n    \\\"m_StageCapability\\\": 3,\\n    \\\"m_Value\\\": {\\n        \\\"x\\\": 0.0,\\n        \\\"y\\\": 0.0,\\n        \\\"z\\\": 0.0\\n    },\\n    \\\"m_DefaultValue\\\": {\\n        \\\"x\\\": 0.0,\\n        \\\"y\\\": 0.0,\\n        \\\"z\\\": 0.0\\n    },\\n    \\\"m_Labels\\\": [\\n        \\\"X\\\",\\n        \\\"Y\\\",\\n        \\\"Z\\\"\\n    ]\\n}\"\n        }\n    ],\n    \"m_Precision\": 1,\n    \"m_PreviewExpanded\": true,\n    \"m_CustomColors\": {\n        \"m_SerializableColors\": []\n    },\n    \"m_PropertyGuidSerialized\": \"38658b38-1602-4a9a-82dc-92dc9e4bc668\"\n}"
        },
        {
            "typeInfo": {
                "fullName": "UnityEditor.ShaderGraph.SubGraphOutputNode"
            },
            "JSONnodeData": "{\n    \"m_GuidSerialized\": \"df57404a-e43a-4184-9c11-db5d8cd93451\",\n    \"m_GroupGuidSerialized\": \"00000000-0000-0000-0000-000000000000\",\n    \"m_Name\": \"Out_Vector1\",\n    \"m_NodeVersion\": 0,\n    \"m_DrawState\": {\n        \"m_Expanded\": true,\n        \"m_Position\": {\n            \"serializedVersion\": \"2\",\n            \"x\": 449.0,\n            \"y\": -153.0,\n            \"width\": 131.0,\n            \"height\": 101.0\n        }\n    },\n    \"m_SerializableSlots\": [\n        {\n            \"typeInfo\": {\n                \"fullName\": \"UnityEditor.ShaderGraph.Vector1MaterialSlot\"\n            },\n            \"JSONnodeData\": \"{\\n    \\\"m_Id\\\": 1,\\n    \\\"m_DisplayName\\\": \\\"Out_Vector1\\\",\\n    \\\"m_SlotType\\\": 0,\\n    \\\"m_Priority\\\": 2147483647,\\n    \\\"m_Hidden\\\": false,\\n    \\\"m_ShaderOutputName\\\": \\\"OutVector1\\\",\\n    \\\"m_StageCapability\\\": 3,\\n    \\\"m_Value\\\": 0.5,\\n    \\\"m_DefaultValue\\\": 0.0,\\n    \\\"m_Labels\\\": [\\n        \\\"X\\\"\\n    ]\\n}\"\n        },\n        {\n            \"typeInfo\": {\n                \"fullName\": \"UnityEditor.ShaderGraph.Vector2MaterialSlot\"\n            },\n            \"JSONnodeData\": \"{\\n    \\\"m_Id\\\": 2,\\n    \\\"m_DisplayName\\\": \\\"ditherUV\\\",\\n    \\\"m_SlotType\\\": 0,\\n    \\\"m_Priority\\\": 2147483647,\\n    \\\"m_Hidden\\\": false,\\n    \\\"m_ShaderOutputName\\\": \\\"ditherUV\\\",\\n    \\\"m_StageCapability\\\": 3,\\n    \\\"m_Value\\\": {\\n        \\\"x\\\": 0.0,\\n        \\\"y\\\": 0.0\\n    },\\n    \\\"m_DefaultValue\\\": {\\n        \\\"x\\\": 0.0,\\n        \\\"y\\\": 0.0\\n    },\\n    \\\"m_Labels\\\": [\\n        \\\"X\\\",\\n        \\\"Y\\\"\\n    ]\\n}\"\n        }\n    ],\n    \"m_Precision\": 1,\n    \"m_PreviewExpanded\": true,\n    \"m_CustomColors\": {\n        \"m_SerializableColors\": []\n    }\n}"
        }
    ],
    "m_Groups": [],
    "m_StickyNotes": [],
    "m_SerializableEdges": [
        {
            "typeInfo": {
                "fullName": "UnityEditor.Graphing.Edge"
            },
            "JSONnodeData": "{\n    \"m_OutputSlot\": {\n        \"m_SlotId\": 6,\n        \"m_NodeGUIDSerialized\": \"118ddd59-e551-429c-90b1-b802a8673d45\"\n    },\n    \"m_InputSlot\": {\n        \"m_SlotId\": 1,\n        \"m_NodeGUIDSerialized\": \"df57404a-e43a-4184-9c11-db5d8cd93451\"\n    }\n}"
        },
        {
            "typeInfo": {
                "fullName": "UnityEditor.Graphing.Edge"
            },
            "JSONnodeData": "{\n    \"m_OutputSlot\": {\n        \"m_SlotId\": 9,\n        \"m_NodeGUIDSerialized\": \"118ddd59-e551-429c-90b1-b802a8673d45\"\n    },\n    \"m_InputSlot\": {\n        \"m_SlotId\": 2,\n        \"m_NodeGUIDSerialized\": \"df57404a-e43a-4184-9c11-db5d8cd93451\"\n    }\n}"
        },
        {
            "typeInfo": {
                "fullName": "UnityEditor.Graphing.Edge"
            },
            "JSONnodeData": "{\n    \"m_OutputSlot\": {\n        \"m_SlotId\": 0,\n        \"m_NodeGUIDSerialized\": \"215fe68c-4b20-4506-8c83-80d2e8beff1c\"\n    },\n    \"m_InputSlot\": {\n        \"m_SlotId\": 0,\n        \"m_NodeGUIDSerialized\": \"878916d4-4ffc-4341-a687-61184c51b7a0\"\n    }\n}"
        },
        {
            "typeInfo": {
                "fullName": "UnityEditor.Graphing.Edge"
            },
            "JSONnodeData": "{\n    \"m_OutputSlot\": {\n        \"m_SlotId\": 1,\n        \"m_NodeGUIDSerialized\": \"215fe68c-4b20-4506-8c83-80d2e8beff1c\"\n    },\n    \"m_InputSlot\": {\n        \"m_SlotId\": 1,\n        \"m_NodeGUIDSerialized\": \"878916d4-4ffc-4341-a687-61184c51b7a0\"\n    }\n}"
        },
        {
            "typeInfo": {
                "fullName": "UnityEditor.Graphing.Edge"
            },
            "JSONnodeData": "{\n    \"m_OutputSlot\": {\n        \"m_SlotId\": 0,\n        \"m_NodeGUIDSerialized\": \"22951025-6167-4c6c-ab2a-f2a517f0dd3e\"\n    },\n    \"m_InputSlot\": {\n        \"m_SlotId\": 0,\n        \"m_NodeGUIDSerialized\": \"94d8ae0c-5dca-4c41-b1e7-33d7c186d90b\"\n    }\n}"
        },
        {
            "typeInfo": {
                "fullName": "UnityEditor.Graphing.Edge"
            },
            "JSONnodeData": "{\n    \"m_OutputSlot\": {\n        \"m_SlotId\": 0,\n        \"m_NodeGUIDSerialized\": \"5a7e284c-d668-4235-a76a-032e469db36c\"\n    },\n    \"m_InputSlot\": {\n        \"m_SlotId\": 7,\n        \"m_NodeGUIDSerialized\": \"118ddd59-e551-429c-90b1-b802a8673d45\"\n    }\n}"
        },
        {
            "typeInfo": {
                "fullName": "UnityEditor.Graphing.Edge"
            },
            "JSONnodeData": "{\n    \"m_OutputSlot\": {\n        \"m_SlotId\": 0,\n        \"m_NodeGUIDSerialized\": \"6aabcd1b-d041-4914-9318-098688497b4f\"\n    },\n    \"m_InputSlot\": {\n        \"m_SlotId\": 8,\n        \"m_NodeGUIDSerialized\": \"118ddd59-e551-429c-90b1-b802a8673d45\"\n    }\n}"
        },
        {
            "typeInfo": {
                "fullName": "UnityEditor.Graphing.Edge"
            },
            "JSONnodeData": "{\n    \"m_OutputSlot\": {\n        \"m_SlotId\": 4,\n        \"m_NodeGUIDSerialized\": \"878916d4-4ffc-4341-a687-61184c51b7a0\"\n    },\n    \"m_InputSlot\": {\n        \"m_SlotId\": 2,\n        \"m_NodeGUIDSerialized\": \"118ddd59-e551-429c-90b1-b802a8673d45\"\n    }\n}"
        },
        {
            "typeInfo": {
                "fullName": "UnityEditor.Graphing.Edge"
            },
            "JSONnodeData": "{\n    \"m_OutputSlot\": {\n        \"m_SlotId\": 4,\n        \"m_NodeGUIDSerialized\": \"878916d4-4ffc-4341-a687-61184c51b7a0\"\n    },\n    \"m_InputSlot\": {\n        \"m_SlotId\": 1,\n        \"m_NodeGUIDSerialized\": \"94d8ae0c-5dca-4c41-b1e7-33d7c186d90b\"\n    }\n}"
        },
        {
            "typeInfo": {
                "fullName": "UnityEditor.Graphing.Edge"
            },
            "JSONnodeData": "{\n    \"m_OutputSlot\": {\n        \"m_SlotId\": 2,\n        \"m_NodeGUIDSerialized\": \"94d8ae0c-5dca-4c41-b1e7-33d7c186d90b\"\n    },\n    \"m_InputSlot\": {\n        \"m_SlotId\": 3,\n        \"m_NodeGUIDSerialized\": \"118ddd59-e551-429c-90b1-b802a8673d45\"\n    }\n}"
        },
        {
            "typeInfo": {
                "fullName": "UnityEditor.Graphing.Edge"
            },
            "JSONnodeData": "{\n    \"m_OutputSlot\": {\n        \"m_SlotId\": 0,\n        \"m_NodeGUIDSerialized\": \"a96beaae-aa90-4aae-a220-4c37b64067a0\"\n    },\n    \"m_InputSlot\": {\n        \"m_SlotId\": 4,\n        \"m_NodeGUIDSerialized\": \"118ddd59-e551-429c-90b1-b802a8673d45\"\n    }\n}"
        },
        {
            "typeInfo": {
                "fullName": "UnityEditor.Graphing.Edge"
            },
            "JSONnodeData": "{\n    \"m_OutputSlot\": {\n        \"m_SlotId\": 0,\n        \"m_NodeGUIDSerialized\": \"c54e7ffd-bfad-4db5-9846-f3baba970da1\"\n    },\n    \"m_InputSlot\": {\n        \"m_SlotId\": 1,\n        \"m_NodeGUIDSerialized\": \"118ddd59-e551-429c-90b1-b802a8673d45\"\n    }\n}"
        }
    ],
    "m_PreviewData": {
        "serializedMesh": {
            "m_SerializedMesh": "{\"mesh\":{\"instanceID\":0}}",
            "m_Guid": ""
        }
    },
    "m_Path": "ProPixelizer/SRP",
    "m_ConcretePrecision": 0,
    "m_ActiveOutputNodeGuidSerialized": ""
}